sha3/sha3Results460at0-0.txt
vsim  -c -do "vlib work; exit;" 
Reading /home/oscarhou/altera/11.1/modelsim_ase/tcl/vsim/pref.tcl 

# 10.0c

# vlib work 
#  exit 
vlog -v ../../../tiger/processor/tiger_DE2/../altera_libs//altera_mf.v ../../../tiger/processor/tiger_DE2/../altera_libs//220model.v ../../../tiger/processor/tiger_DE2/../altera_libs//altfp_adder.v ../../../tiger/processor/tiger_DE2/../altera_libs//altfp_subtractor.v ../../../tiger/processor/tiger_DE2/../altera_libs//altfp_multiplier.v ../../../tiger/processor/tiger_DE2/../altera_libs//altfp_divider.v ../../../tiger/processor/tiger_DE2/../altera_libs//altfp_adder64.v ../../../tiger/processor/tiger_DE2/../altera_libs//altfp_subtractor64.v ../../../tiger/processor/tiger_DE2/../altera_libs//altfp_multiplier64.v ../../../tiger/processor/tiger_DE2/../altera_libs//altfp_divider64.v ../../../tiger/processor/tiger_DE2/../altera_libs//altfp_compare32.v ../../../tiger/processor/tiger_DE2/../altera_libs//altfp_compare64.v ../../../tiger/processor/tiger_DE2/../altera_libs//altfp_truncate.v ../../../tiger/processor/tiger_DE2/../altera_libs//altfp_extend.v ../../../tiger/processor/tiger_DE2/../altera_libs//altfp_sitofp32.v ../../../tiger/processor/tiger_DE2/../altera_libs//altfp_sitofp64.v ../../../tiger/processor/tiger_DE2/../altera_libs//altfp_fptosi32.v ../../../tiger/processor/tiger_DE2/../altera_libs//altfp_fptosi64.v sha3.v
Model Technology ModelSim ALTERA vlog 10.0c Compiler 2011.09 Sep 21 2011
-- Compiling module LPM_MEMORY_INITIALIZATION
-- Compiling module LPM_HINT_EVALUATION
-- Compiling module LPM_DEVICE_FAMILIES
-- Compiling module lpm_constant
-- Compiling module lpm_inv
-- Compiling module lpm_and
-- Compiling module lpm_or
-- Compiling module lpm_xor
-- Compiling module lpm_bustri
-- Compiling module lpm_mux
-- Compiling module lpm_decode
-- Compiling module lpm_clshift
-- Compiling module lpm_add_sub
-- Compiling module lpm_compare
-- Compiling module lpm_mult
-- Compiling module lpm_divide
-- Compiling module lpm_abs
-- Compiling module lpm_counter
-- Compiling module lpm_latch
-- Compiling module lpm_ff
-- Compiling module lpm_shiftreg
-- Compiling module lpm_ram_dq
-- Compiling module lpm_ram_dp
-- Compiling module lpm_ram_io
-- Compiling module lpm_rom
-- Compiling module lpm_fifo
-- Compiling module lpm_fifo_dc_dffpipe
-- Compiling module lpm_fifo_dc_fefifo
-- Compiling module lpm_fifo_dc_async
-- Compiling module lpm_fifo_dc
-- Compiling module lpm_inpad
-- Compiling module lpm_outpad
-- Compiling module lpm_bipad
-- Compiling module altfp_adder_altbarrel_shift_h0e
-- Compiling module altfp_adder_altbarrel_shift_n3g
-- Compiling module altfp_adder_altpriority_encoder_3e8
-- Compiling module altfp_adder_altpriority_encoder_6e8
-- Compiling module altfp_adder_altpriority_encoder_be8
-- Compiling module altfp_adder_altpriority_encoder_3v7
-- Compiling module altfp_adder_altpriority_encoder_6v7
-- Compiling module altfp_adder_altpriority_encoder_bv7
-- Compiling module altfp_adder_altpriority_encoder_uv8
-- Compiling module altfp_adder_altpriority_encoder_ue9
-- Compiling module altfp_adder_altpriority_encoder_ou8
-- Compiling module altfp_adder_altpriority_encoder_nh8
-- Compiling module altfp_adder_altpriority_encoder_qh8
-- Compiling module altfp_adder_altpriority_encoder_vh8
-- Compiling module altfp_adder_altpriority_encoder_ii9
-- Compiling module altfp_adder_altpriority_encoder_n28
-- Compiling module altfp_adder_altpriority_encoder_q28
-- Compiling module altfp_adder_altpriority_encoder_v28
-- Compiling module altfp_adder_altpriority_encoder_i39
-- Compiling module altfp_adder_altpriority_encoder_cna
-- Compiling module altfp_adder_altfp_add_sub_dmj
-- Compiling module altfp_adder
-- Compiling module altfp_subtractor_altbarrel_shift_h0e
-- Compiling module altfp_subtractor_altbarrel_shift_n3g
-- Compiling module altfp_subtractor_altpriority_encoder_3e8
-- Compiling module altfp_subtractor_altpriority_encoder_6e8
-- Compiling module altfp_subtractor_altpriority_encoder_be8
-- Compiling module altfp_subtractor_altpriority_encoder_3v7
-- Compiling module altfp_subtractor_altpriority_encoder_6v7
-- Compiling module altfp_subtractor_altpriority_encoder_bv7
-- Compiling module altfp_subtractor_altpriority_encoder_uv8
-- Compiling module altfp_subtractor_altpriority_encoder_ue9
-- Compiling module altfp_subtractor_altpriority_encoder_ou8
-- Compiling module altfp_subtractor_altpriority_encoder_nh8
-- Compiling module altfp_subtractor_altpriority_encoder_qh8
-- Compiling module altfp_subtractor_altpriority_encoder_vh8
-- Compiling module altfp_subtractor_altpriority_encoder_ii9
-- Compiling module altfp_subtractor_altpriority_encoder_n28
-- Compiling module altfp_subtractor_altpriority_encoder_q28
-- Compiling module altfp_subtractor_altpriority_encoder_v28
-- Compiling module altfp_subtractor_altpriority_encoder_i39
-- Compiling module altfp_subtractor_altpriority_encoder_cna
-- Compiling module altfp_subtractor_altfp_add_sub_enj
-- Compiling module altfp_subtractor
-- Compiling module altfp_multiplier_altfp_mult_4do
-- Compiling module altfp_multiplier
-- Compiling module altfp_divider_altfp_div_csa_gvc
-- Compiling module altfp_divider_altfp_div_csa_72c
-- Compiling module altfp_divider_altfp_div_csa_j0f
-- Compiling module altfp_divider_altfp_div_csa_c3c
-- Compiling module altfp_divider_altfp_div_csa_a2c
-- Compiling module altfp_divider_altfp_div_csa_b3c
-- Compiling module altfp_divider_qds_block_7o8
-- Compiling module altfp_divider_srt_block_int_2fk
-- Compiling module altfp_divider_qds_block_6a7
-- Compiling module altfp_divider_srt_block_int_ahk
-- Compiling module altfp_divider_srt_block_int_hbk
-- Compiling module altfp_divider_altfp_div_srt_ext_73f
-- Compiling module altfp_divider_altfp_div_kth
-- Compiling module altfp_divider
-- Compiling module altfp_adder64_altbarrel_shift_k0e
-- Compiling module altfp_adder64_altbarrel_shift_q3g
-- Compiling module altfp_adder64_altpriority_encoder_3e8
-- Compiling module altfp_adder64_altpriority_encoder_6e8
-- Compiling module altfp_adder64_altpriority_encoder_be8
-- Compiling module altfp_adder64_altpriority_encoder_rf8
-- Compiling module altfp_adder64_altpriority_encoder_3v7
-- Compiling module altfp_adder64_altpriority_encoder_6v7
-- Compiling module altfp_adder64_altpriority_encoder_bv7
-- Compiling module altfp_adder64_altpriority_encoder_r08
-- Compiling module altfp_adder64_altpriority_encoder_tv8
-- Compiling module altfp_adder64_altpriority_encoder_te9
-- Compiling module altfp_adder64_altpriority_encoder_uu8
-- Compiling module altfp_adder64_altpriority_encoder_nh8
-- Compiling module altfp_adder64_altpriority_encoder_qh8
-- Compiling module altfp_adder64_altpriority_encoder_vh8
-- Compiling module altfp_adder64_altpriority_encoder_fj8
-- Compiling module altfp_adder64_altpriority_encoder_hi9
-- Compiling module altfp_adder64_altpriority_encoder_n28
-- Compiling module altfp_adder64_altpriority_encoder_q28
-- Compiling module altfp_adder64_altpriority_encoder_v28
-- Compiling module altfp_adder64_altpriority_encoder_f48
-- Compiling module altfp_adder64_altpriority_encoder_h39
-- Compiling module altfp_adder64_altpriority_encoder_ina
-- Compiling module altfp_adder64_altfp_add_sub_pnj
-- Compiling module altfp_adder64
-- Compiling module altfp_subtractor64_altbarrel_shift_k0e
-- Compiling module altfp_subtractor64_altbarrel_shift_q3g
-- Compiling module altfp_subtractor64_altpriority_encoder_3e8
-- Compiling module altfp_subtractor64_altpriority_encoder_6e8
-- Compiling module altfp_subtractor64_altpriority_encoder_be8
-- Compiling module altfp_subtractor64_altpriority_encoder_rf8
-- Compiling module altfp_subtractor64_altpriority_encoder_3v7
-- Compiling module altfp_subtractor64_altpriority_encoder_6v7
-- Compiling module altfp_subtractor64_altpriority_encoder_bv7
-- Compiling module altfp_subtractor64_altpriority_encoder_r08
-- Compiling module altfp_subtractor64_altpriority_encoder_tv8
-- Compiling module altfp_subtractor64_altpriority_encoder_te9
-- Compiling module altfp_subtractor64_altpriority_encoder_uu8
-- Compiling module altfp_subtractor64_altpriority_encoder_nh8
-- Compiling module altfp_subtractor64_altpriority_encoder_qh8
-- Compiling module altfp_subtractor64_altpriority_encoder_vh8
-- Compiling module altfp_subtractor64_altpriority_encoder_fj8
-- Compiling module altfp_subtractor64_altpriority_encoder_hi9
-- Compiling module altfp_subtractor64_altpriority_encoder_n28
-- Compiling module altfp_subtractor64_altpriority_encoder_q28
-- Compiling module altfp_subtractor64_altpriority_encoder_v28
-- Compiling module altfp_subtractor64_altpriority_encoder_f48
-- Compiling module altfp_subtractor64_altpriority_encoder_h39
-- Compiling module altfp_subtractor64_altpriority_encoder_ina
-- Compiling module altfp_subtractor64_altfp_add_sub_qoj
-- Compiling module altfp_subtractor64
-- Compiling module altfp_multiplier64_altfp_mult_geo
-- Compiling module altfp_multiplier64
-- Compiling module altfp_divider64_altfp_div_csa_ivc
-- Compiling module altfp_divider64_altfp_div_csa_92c
-- Compiling module altfp_divider64_altfp_div_csa_k0f
-- Compiling module altfp_divider64_altfp_div_csa_d3c
-- Compiling module altfp_divider64_altfp_div_csa_c2c
-- Compiling module altfp_divider64_qds_block_7o8
-- Compiling module altfp_divider64_srt_block_int_8fk
-- Compiling module altfp_divider64_qds_block_6a7
-- Compiling module altfp_divider64_srt_block_int_ghk
-- Compiling module altfp_divider64_srt_block_int_nbk
-- Compiling module altfp_divider64_altfp_div_srt_ext_e3f
-- Compiling module altfp_divider64_altfp_div_1vh
-- Compiling module altfp_divider64
-- Compiling module altfp_compare32_altfp_compare_lke
-- Compiling module altfp_compare32
-- Compiling module altfp_compare64_altfp_compare_1me
-- Compiling module altfp_compare64
-- Compiling module altfp_truncate_altfp_convert_bpn
-- Compiling module altfp_truncate
-- Compiling module altfp_extend_altfp_convert_bpn
-- Compiling module altfp_extend
-- Compiling module altfp_sitofp32_altbarrel_shift_brf
-- Compiling module altfp_sitofp32_altpriority_encoder_3e8
-- Compiling module altfp_sitofp32_altpriority_encoder_6e8
-- Compiling module altfp_sitofp32_altpriority_encoder_be8
-- Compiling module altfp_sitofp32_altpriority_encoder_rf8
-- Compiling module altfp_sitofp32_altpriority_encoder_3v7
-- Compiling module altfp_sitofp32_altpriority_encoder_6v7
-- Compiling module altfp_sitofp32_altpriority_encoder_bv7
-- Compiling module altfp_sitofp32_altpriority_encoder_r08
-- Compiling module altfp_sitofp32_altpriority_encoder_qb6
-- Compiling module altfp_sitofp32_altfp_convert_fhn
-- Compiling module altfp_sitofp32
-- Compiling module altfp_sitofp64_altbarrel_shift_brf
-- Compiling module altfp_sitofp64_altpriority_encoder_3v7
-- Compiling module altfp_sitofp64_altpriority_encoder_3e8
-- Compiling module altfp_sitofp64_altpriority_encoder_6v7
-- Compiling module altfp_sitofp64_altpriority_encoder_6e8
-- Compiling module altfp_sitofp64_altpriority_encoder_bv7
-- Compiling module altfp_sitofp64_altpriority_encoder_be8
-- Compiling module altfp_sitofp64_altpriority_encoder_r08
-- Compiling module altfp_sitofp64_altpriority_encoder_rf8
-- Compiling module altfp_sitofp64_altpriority_encoder_qb6
-- Compiling module altfp_sitofp64_altfp_convert_0jn
-- Compiling module altfp_sitofp64
-- Compiling module altfp_fptosi32_altbarrel_shift_grf
-- Compiling module altfp_fptosi32_altfp_convert_fhn
-- Compiling module altfp_fptosi32
-- Compiling module altfp_fptosi64_altbarrel_shift_jrf
-- Compiling module altfp_fptosi64_altfp_convert_0jn
-- Compiling module altfp_fptosi64
-- Compiling module top
-- Compiling module memory_controller
-- Compiling module main
-- Compiling module ram_dual_port
-- Compiling module de2
-- Compiling module de4
-- Compiling module hex_digits
-- Compiling module main_tb
-- Scanning library file '../../../tiger/processor/tiger_DE2/../altera_libs//altera_mf.v'
-- Compiling module altsyncram
-- Scanning library file '../../../tiger/processor/tiger_DE2/../altera_libs//altera_mf.v'
-- Compiling module ALTERA_MF_MEMORY_INITIALIZATION
-- Compiling module ALTERA_DEVICE_FAMILIES

Top level modules:
	lpm_constant
	lpm_inv
	lpm_and
	lpm_or
	lpm_xor
	lpm_bustri
	lpm_decode
	lpm_clshift
	lpm_abs
	lpm_counter
	lpm_latch
	lpm_ff
	lpm_shiftreg
	lpm_ram_dq
	lpm_ram_dp
	lpm_ram_io
	lpm_rom
	lpm_fifo
	lpm_fifo_dc
	lpm_inpad
	lpm_outpad
	lpm_bipad
	altfp_adder
	altfp_subtractor
	altfp_multiplier
	altfp_divider
	altfp_adder64
	altfp_subtractor64
	altfp_multiplier64
	altfp_divider64
	altfp_compare32
	altfp_compare64
	altfp_truncate
	altfp_extend
	altfp_sitofp32
	altfp_sitofp64
	altfp_fptosi32
	altfp_fptosi64
	de4
	main_tb
vsim  -c -do "run 7000000000000000ns; exit;" work.main_tb
Reading /home/oscarhou/altera/11.1/modelsim_ase/tcl/vsim/pref.tcl 

# 10.0c

# vsim -do {run 7000000000000000ns; exit;} -c work.main_tb 
# Loading work.main_tb
# Loading work.top
# Loading work.memory_controller
# Loading work.ram_dual_port
# Loading work.altsyncram
# Loading work.ALTERA_DEVICE_FAMILIES
# Loading work.ALTERA_MF_MEMORY_INITIALIZATION
# Loading work.main
# Loading work.lpm_divide
# Loading work.LPM_HINT_EVALUATION
# run 7000000000000000ns 
# Cycle:                   66 Time:                 1370    ---------------Round          0--------------
# Cycle:                  101 Time:                 2070    C Value  After theta :       460,          0,      32768,          0,          0
# Cycle:                  296 Time:                 5970    D Value:          0,        461,          0,      32768,        920
# Cycle:                  419 Time:                 8430    State After Theta Step: 
# Cycle:                  424 Time:                 8530    1st Row:        460,        461,          0,      32768,        920
# Cycle:                  429 Time:                 8630    2st Row:          0,        461,      32768,      32768,        920
# Cycle:                  434 Time:                 8730    3st Row:          0,        461,          0,      32768,        920
# Cycle:                  439 Time:                 8830    4st Row:          0,        461,          0,      32768,        920
# Cycle:                  444 Time:                 8930    5st Row:          0,        461,          0,      32768,        920
# Cycle:                 1380 Time:                27650    Temporary State (B) after Rho and Pi:
# Cycle:                 1385 Time:                27750    1st Row:        460,      53276,          0,         16,        230
# Cycle:                 1390 Time:                27850    2st Row:       2048,      14720,          0,      41017,          0
# Cycle:                 1395 Time:                27950    3st Row:        922,         32,        256,      38915,          0
# Cycle:                 1400 Time:                28050    4st Row:      49180,          0,      13319,          0,        128
# Cycle:                 1405 Time:                28150    5st Row:          0,         64,      52225,          0,       1844
# Cycle:                 1706 Time:                34170    State after Chi step:
# Cycle:                 1711 Time:                34270    1st Row:        460,      53260,        230,        280,      53494
# Cycle:                 1716 Time:                34370    2st Row:       2048,      39353,          0,      43065,      12672
# Cycle:                 1721 Time:                34470    3st Row:        666,      38947,        256,      39833,         32
# Cycle:                 1726 Time:                34570    4st Row:      62491,          0,      13447,      49180,        128
# Cycle:                 1731 Time:                34670    5st Row:      52225,         64,      52021,          0,       1908
# Cycle:                 1735 Time:                34750    Final state of round : 
# Cycle:                 1740 Time:                34850    1st Row:        461,      53260,        230,        280,      53494
# Cycle:                 1745 Time:                34950    2st Row:       2048,      39353,          0,      43065,      12672
# Cycle:                 1750 Time:                35050    3st Row:        666,      38947,        256,      39833,         32
# Cycle:                 1755 Time:                35150    4st Row:      62491,          0,      13447,      49180,        128
# Cycle:                 1760 Time:                35250    5st Row:      52225,         64,      52021,          0,       1908
# Cycle:                 1761 Time:                35270    ---------------Round          1--------------
# Cycle:                 1796 Time:                35970    C Value  After theta :     13133,      53718,      65108,      62116,      59042
# Cycle:                 1991 Time:                39870    D Value:      17679,      53220,      13471,      13073,      37950
# Cycle:                 2114 Time:                42330    State After Theta Step: 
# Cycle:                 2119 Time:                42430    1st Row:      17602,       8168,      13433,      12809,      17608
# Cycle:                 2124 Time:                42530    2st Row:      19727,      22109,      13471,      39720,      42430
# Cycle:                 2129 Time:                42630    3st Row:      18325,      22471,      13727,      43144,      37918
# Cycle:                 2134 Time:                42730    4st Row:      45332,      53220,         24,      62221,      38078
# Cycle:                 2139 Time:                42830    5st Row:      35086,      53156,      65450,      13073,      37706
# Cycle:                 3075 Time:                61550    Temporary State (B) after Rho and Pi:
# Cycle:                 3080 Time:                61650    1st Row:      17602,      54629,      63916,      25022,      42194
# Cycle:                 3085 Time:                61750    2st Row:      37664,      23530,      15530,      39420,      24565
# Cycle:                 3090 Time:                61850    3st Row:      16336,      10189,       4433,      48788,       9274
# Cycle:                 3095 Time:                61950    4st Row:      16934,      53492,       7519,         12,       4403
# Cycle:                 3100 Time:                62050    5st Row:      19742,      37965,       3914,      10594,      16019
# Cycle:                 3401 Time:                68070    State after Chi step:
# Cycle:                 3406 Time:                68170    1st Row:      27722,      54647,      32236,       8638,      13815
# Cycle:                 3411 Time:                68270    2st Row:      46880,      55998,      31403,       6652,       5951
# Cycle:                 3416 Time:                68370    3st Row:      12224,      35145,       4475,      42324,       9271
# Cycle:                 3421 Time:                68470    4st Row:      20269,      53492,       3180,      16904,      33251
# Cycle:                 3426 Time:                68570    5st Row:      17948,      46189,       6619,      26734,      44754
# Cycle:                 3430 Time:                68650    Final state of round : 
# Cycle:                 3435 Time:                68750    1st Row:      60616,      54647,      32236,       8638,      13815
# Cycle:                 3440 Time:                68850    2st Row:      46880,      55998,      31403,       6652,       5951
# Cycle:                 3445 Time:                68950    3st Row:      12224,      35145,       4475,      42324,       9271
# Cycle:                 3450 Time:                69050    4st Row:      20269,      53492,       3180,      16904,      33251
# Cycle:                 3455 Time:                69150    5st Row:      17948,      46189,       6619,      26734,      44754
# Cycle:                 3456 Time:                69170    ---------------Round          2--------------
# Cycle:                 3491 Time:                69870    C Value  After theta :     32025,      57881,        907,      46960,      10702
# Cycle:                 3686 Time:                73770    D Value:      60925,      31247,      36088,      20503,      19778
# Cycle:                 3809 Time:                76230    State After Theta Step: 
# Cycle:                 3814 Time:                76330    1st Row:        309,      44920,      61716,      29097,      30901
# Cycle:                 3819 Time:                76430    2st Row:      23261,      41137,      63059,      18923,      23165
# Cycle:                 3824 Time:                76530    3st Row:      49725,      62278,      40323,      62787,      26997
# Cycle:                 3829 Time:                76630    4st Row:      41680,      43771,      32916,       4639,      52385
# Cycle:                 3834 Time:                76730    5st Row:      44001,      52834,      38179,      14457,      58256
# Cycle:                 4770 Time:                95450    Temporary State (B) after Rho and Pi:
# Cycle:                 4775 Time:                95550    1st Row:        309,       6667,       7404,      17378,      14564
# Cycle:                 4780 Time:                95650    2st Row:      38682,      42965,       4590,      30047,      29348
# Cycle:                 4785 Time:                95750    3st Row:      24305,      38141,      34794,      41420,      44934
# Cycle:                 4790 Time:                95850    4st Row:      43973,      44501,       7117,      16458,      31032
# Cycle:                 4795 Time:                95950    5st Row:      15429,      62884,      47796,      41285,      14731
# Cycle:                 5096 Time:               101970    State after Chi step:
# Cycle:                 5101 Time:               102070    1st Row:       1489,      22793,       9448,      17139,       8942
# Cycle:                 5106 Time:               102170    2st Row:      34608,      50116,       4942,      61509,      21089
# Cycle:                 5111 Time:               102270    3st Row:      24051,      46329,      35304,      61885,      12170
# Cycle:                 5116 Time:               102370    4st Row:      47565,      60887,       8957,      49807,      32040
# Cycle:                 5121 Time:               102470    5st Row:      13909,      62693,      41534,      42241,      63531
# Cycle:                 5125 Time:               102550    Final state of round : 
# Cycle:                 5130 Time:               102650    1st Row:      34139,      22793,       9448,      17139,       8942
# Cycle:                 5135 Time:               102750    2st Row:      34608,      50116,       4942,      61509,      21089
# Cycle:                 5140 Time:               102850    3st Row:      24051,      46329,      35304,      61885,      12170
# Cycle:                 5145 Time:               102950    4st Row:      47565,      60887,       8957,      49807,      32040
# Cycle:                 5150 Time:               103050    5st Row:      13909,      62693,      41534,      42241,      63531
# Cycle:                 5151 Time:               103070    ---------------Round          3--------------
# Cycle:                 5186 Time:               103770    C Value  After theta :     53248,      14086,      16013,       9349,      55814
# Cycle:                 5381 Time:               107670    D Value:      46090,      44314,      32268,      35456,      33924
# Cycle:                 5504 Time:               110130    State After Theta Step: 
# Cycle:                 5509 Time:               110230    1st Row:      12625,      62483,      23268,      51315,      42602
# Cycle:                 5514 Time:               110330    2st Row:      13114,      28382,      27970,      31429,      55013
# Cycle:                 5519 Time:               110430    3st Row:      59897,       6627,      63460,      31549,      43790
# Cycle:                 5524 Time:               110530    4st Row:       3527,      16589,      23793,      18447,      63916
# Cycle:                 5529 Time:               110630    5st Row:      33375,      23039,      56370,      12161,      31919
# Cycle:                 6465 Time:               129350    Temporary State (B) after Rho and Pi:
# Cycle:                 6470 Time:               129450    1st Row:      12625,      59117,      10175,        489,      57131
# Cycle:                 6475 Time:               129550    2st Row:      15495,      28253,      20431,      43033,      23430
# Cycle:                 6480 Time:               129650    3st Row:      59431,      20635,      31478,      44281,       2430
# Cycle:                 6485 Time:               129750    4st Row:      21811,      13219,      35943,      44664,      33071
# Cycle:                 6490 Time:               129850    5st Row:       5817,      25277,      34645,      36379,      26621
# Cycle:                 6791 Time:               135870    State after Chi step:
# Cycle:                 6796 Time:               135970    1st Row:      12355,      59053,      63933,       8633,       6535
# Cycle:                 6801 Time:               136070    2st Row:      15621,      52813,       7241,      35864,       6622
# Cycle:                 6806 Time:               136170    3st Row:      49731,      54418,      31728,      19704,       6630
# Cycle:                 6811 Time:               136270    4st Row:      55671,       4539,      36192,      64104,      41903
# Cycle:                 6816 Time:               136370    5st Row:      37881,      27319,      59057,      40475,       2041
# Cycle:                 6820 Time:               136450    Final state of round : 
# Cycle:                 6825 Time:               136550    1st Row:      45123,      59053,      63933,       8633,       6535
# Cycle:                 6830 Time:               136650    2st Row:      15621,      52813,       7241,      35864,       6622
# Cycle:                 6835 Time:               136750    3st Row:      49731,      54418,      31728,      19704,       6630
# Cycle:                 6840 Time:               136850    4st Row:      55671,       4539,      36192,      64104,      41903
# Cycle:                 6845 Time:               136950    5st Row:      37881,      27319,      59057,      40475,       2041
# Cycle:                 6846 Time:               136970    ---------------Round          4--------------
# Cycle:                 6881 Time:               137670    C Value  After theta :      1419,      34686,      62933,      34090,      48617
# Cycle:                 7076 Time:               141570    D Value:      45844,      60960,      36139,      36358,      36412
# Cycle:                 7199 Time:               144030    State After Theta Step: 
# Cycle:                 7204 Time:               144130    1st Row:        855,       2189,      29846,      44991,      38843
# Cycle:                 7209 Time:               144230    2st Row:      36369,       8301,      37218,        542,      38882
# Cycle:                 7214 Time:               144330    3st Row:      29015,      15026,      63195,      49918,      38874
# Cycle:                 7219 Time:               144430    4st Row:      27235,      65435,         75,      29806,      11667
# Cycle:                 7224 Time:               144530    5st Row:       8429,      33943,      27546,       4125,      35269
# Cycle:                 8160 Time:               163250    Temporary State (B) after Rho and Pi:
# Cycle:                 8165 Time:               163350    1st Row:        855,      53766,      57270,      36302,      25201
# Cycle:                 8170 Time:               163450    2st Row:      64251,      32297,      35515,      32755,      19827
# Cycle:                 8175 Time:               163550    3st Row:       4378,      22692,      64901,      37677,      33716
# Cycle:                 8180 Time:               163650    4st Row:      56509,      57624,      51434,      32805,       7440
# Cycle:                 8185 Time:               163750    5st Row:      40229,       3841,      60747,      50900,       4702
# Cycle:                 8486 Time:               169770    State after Chi step:
# Cycle:                 8491 Time:               169870    1st Row:       3815,      53838,      48519,      36040,      45681
# Cycle:                 8496 Time:               169970    2st Row:      31337,       2921,      35515,      52603,      18803
# Cycle:                 8501 Time:               170070    3st Row:      46107,      23180,      64789,      33575,      51984
# Cycle:                 8506 Time:               170170    4st Row:      54367,      57629,      54778,      16520,      15376
# Cycle:                 8511 Time:               170270    5st Row:      32111,       3477,      64833,      19445,       4190
# Cycle:                 8515 Time:               170350    Final state of round : 
# Cycle:                 8520 Time:               170450    1st Row:      36460,      53838,      48519,      36040,      45681
# Cycle:                 8525 Time:               170550    2st Row:      31337,       2921,      35515,      52603,      18803
# Cycle:                 8530 Time:               170650    3st Row:      46107,      23180,      64789,      33575,      51984
# Cycle:                 8535 Time:               170750    4st Row:      54367,      57629,      54778,      16520,      15376
# Cycle:                 8540 Time:               170850    5st Row:      32111,       3477,      64833,      19445,       4190
# Cycle:                 8541 Time:               170870    ---------------Round          5--------------
# Cycle:                 8576 Time:               171570    C Value  After theta :     59694,      28451,      58002,      51689,       7260
# Cycle:                 8771 Time:               175470    D Value:      49690,      11275,      64752,      55850,       7092
# Cycle:                 8894 Time:               177930    State After Theta Step: 
# Cycle:                 8899 Time:               178030    1st Row:      19574,      65093,      16759,      22242,      43461
# Cycle:                 8904 Time:               178130    2st Row:      47219,      10082,      30283,       5969,      21191
# Cycle:                 8909 Time:               178230    3st Row:      30209,      30343,        485,      22797,      53412
# Cycle:                 8914 Time:               178330    4st Row:       5701,      52502,      10506,      39586,      10148
# Cycle:                 8919 Time:               178430    5st Row:      49013,       8606,        433,      37343,       3050
# Cycle:                 9855 Time:               197150    Temporary State (B) after Rho and Pi:
# Cycle:                 9860 Time:               197250    1st Row:      19574,       8822,      10255,      21587,      33530
# Cycle:                 9865 Time:               197350    2st Row:       9582,      11381,      45067,      55714,       8246
# Cycle:                 9870 Time:               197450    3st Row:      64651,      37597,       6834,      42023,      64982
# Cycle:                 9875 Time:               197550    4st Row:      11598,      34619,       7642,       5253,      57233
# Cycle:                 9880 Time:               197650    5st Row:      53341,      43147,      21096,      35372,      34424
# Cycle:                10181 Time:               203670    State after Chi step:
# Cycle:                10186 Time:               203770    1st Row:      17535,      30246,      43687,       6231,      41210
# Cycle:                10191 Time:               203870    2st Row:      46436,      26069,      36895,      56554,      10279
# Cycle:                10196 Time:               203970    3st Row:      62633,      14040,      17250,      42030,      65410
# Cycle:                10201 Time:               204070    4st Row:      13710,      34622,      54986,      13515,      23968
# Cycle:                10206 Time:               204170    5st Row:      33341,       8335,      22072,      55849,      44794
# Cycle:                10210 Time:               204250    Final state of round : 
# Cycle:                10215 Time:               204350    1st Row:      17534,      30246,      43687,       6231,      41210
# Cycle:                10220 Time:               204450    2st Row:      46436,      26069,      36895,      56554,      10279
# Cycle:                10225 Time:               204550    3st Row:      62633,      14040,      17250,      42030,      65410
# Cycle:                10230 Time:               204650    4st Row:      13710,      34622,      54986,      13515,      23968
# Cycle:                10235 Time:               204750    5st Row:      33341,       8335,      22072,      55849,      44794
# Cycle:                10236 Time:               204770    ---------------Round          6--------------
# Cycle:                10271 Time:               205470    C Value  After theta :     45568,      33434,      63784,      36465,      33797
# Cycle:                10466 Time:               209370    D Value:      33072,      16465,      40569,      61731,      60016
# Cycle:                10589 Time:               211830    State After Theta Step: 
# Cycle:                10594 Time:               211930    1st Row:      50510,      13943,      13534,      59764,      19082
# Cycle:                10599 Time:               212030    2st Row:      13396,       9604,       3686,      11721,      49751
# Cycle:                10604 Time:               212130    3st Row:      30105,      30345,      56603,      21773,       5618
# Cycle:                10609 Time:               212230    4st Row:      46270,      51055,      18611,      50664,      47056
# Cycle:                10614 Time:               212330    5st Row:        781,      24798,      51265,      11018,      17546
# Cycle:                11550 Time:               231050    Temporary State (B) after Rho and Pi:
# Cycle:                11555 Time:               231150    1st Row:      50510,      16984,      57064,      48408,      37154
# Cycle:                11560 Time:               231250    2st Row:      20119,       9596,      44235,      63725,      14600
# Cycle:                11565 Time:               231350    3st Row:      27886,      39299,       6826,      53431,       3124
# Cycle:                11570 Time:               231450    4st Row:      21076,      17731,       9690,      42073,       2603
# Cycle:                11575 Time:               231550    5st Row:      36151,      58518,      63754,      32105,      33657
# Cycle:                11876 Time:               237570    State after Chi step:
# Cycle:                11881 Time:               237670    1st Row:      23022,      25416,      57034,      63828,      37682
# Cycle:                11886 Time:               237770    2st Row:      50708,      30040,      44491,      48762,       6240
# Cycle:                11891 Time:               237870    3st Row:      28358,      22934,       5802,      45181,      40245
# Cycle:                11896 Time:               237970    4st Row:      29388,      50498,      12280,      62477,       3880
# Cycle:                11901 Time:               238070    5st Row:      37951,      57591,      31514,      29039,      58361
# Cycle:                11905 Time:               238150    Final state of round : 
# Cycle:                11910 Time:               238250    1st Row:      55663,      25416,      57034,      63828,      37682
# Cycle:                11915 Time:               238350    2st Row:      50708,      30040,      44491,      48762,       6240
# Cycle:                11920 Time:               238450    3st Row:      28358,      22934,       5802,      45181,      40245
# Cycle:                11925 Time:               238550    4st Row:      29388,      50498,      12280,      62477,       3880
# Cycle:                11930 Time:               238650    5st Row:      37951,      57591,      31514,      29039,      58361
# Cycle:                11931 Time:               238670    ---------------Round          7--------------
# Cycle:                11966 Time:               239370    C Value  After theta :     38734,      27187,      12617,      29233,      64182
# Cycle:                12161 Time:               243270    D Value:      11984,      62940,      36433,      50212,      23724
# Cycle:                12284 Time:               245730    State After Theta Step: 
# Cycle:                12289 Time:               245830    1st Row:      63423,      38548,      20635,      15728,      53150
# Cycle:                12294 Time:               245930    2st Row:      59588,      32900,       9114,      31326,      17612
# Cycle:                12299 Time:               246030    3st Row:      16406,      44106,      39163,      29785,      49561
# Cycle:                12304 Time:               246130    4st Row:      23580,      12446,      41385,      12329,      21380
# Cycle:                12309 Time:               246230    5st Row:      47855,       5419,      62795,      46411,      48981
# Cycle:                13245 Time:               264950    Temporary State (B) after Rho and Pi:
# Cycle:                13250 Time:               265050    1st Row:      63423,      18440,      56519,       1318,      28629
# Cycle:                13255 Time:               265150    2st Row:        983,      19652,        178,      50707,      32425
# Cycle:                13260 Time:               265250    3st Row:      11561,      59016,      45800,      33875,      60350
# Cycle:                13265 Time:               265350    4st Row:      63100,      35918,      10929,      53460,      19381
# Cycle:                13270 Time:               265450    5st Row:      54310,      12093,      52448,      14520,      21676
# Cycle:                13571 Time:               271470    State after Chi step:
# Cycle:                13576 Time:               271570    1st Row:      25464,      18728,      46614,      38156,      26581
# Cycle:                13581 Time:               271670    2st Row:        997,      35525,      14362,      51013,      12969
# Cycle:                13586 Time:               271770    3st Row:      15689,      58011,      55620,      32850,      10558
# Cycle:                13591 Time:               271870    4st Row:      54477,      23562,       8592,      25756,      17335
