sha3/sha3ResultsFirstRow1s.txt
vsim  -c -do "vlib work; exit;" 
Reading /home/oscarhou/altera/11.1/modelsim_ase/tcl/vsim/pref.tcl 

# 10.0c

# vlib work 
#  exit 
vlog -v ../../../tiger/processor/tiger_DE2/../altera_libs//altera_mf.v ../../../tiger/processor/tiger_DE2/../altera_libs//220model.v ../../../tiger/processor/tiger_DE2/../altera_libs//altfp_adder.v ../../../tiger/processor/tiger_DE2/../altera_libs//altfp_subtractor.v ../../../tiger/processor/tiger_DE2/../altera_libs//altfp_multiplier.v ../../../tiger/processor/tiger_DE2/../altera_libs//altfp_divider.v ../../../tiger/processor/tiger_DE2/../altera_libs//altfp_adder64.v ../../../tiger/processor/tiger_DE2/../altera_libs//altfp_subtractor64.v ../../../tiger/processor/tiger_DE2/../altera_libs//altfp_multiplier64.v ../../../tiger/processor/tiger_DE2/../altera_libs//altfp_divider64.v ../../../tiger/processor/tiger_DE2/../altera_libs//altfp_compare32.v ../../../tiger/processor/tiger_DE2/../altera_libs//altfp_compare64.v ../../../tiger/processor/tiger_DE2/../altera_libs//altfp_truncate.v ../../../tiger/processor/tiger_DE2/../altera_libs//altfp_extend.v ../../../tiger/processor/tiger_DE2/../altera_libs//altfp_sitofp32.v ../../../tiger/processor/tiger_DE2/../altera_libs//altfp_sitofp64.v ../../../tiger/processor/tiger_DE2/../altera_libs//altfp_fptosi32.v ../../../tiger/processor/tiger_DE2/../altera_libs//altfp_fptosi64.v sha3.v
Model Technology ModelSim ALTERA vlog 10.0c Compiler 2011.09 Sep 21 2011
-- Compiling module LPM_MEMORY_INITIALIZATION
-- Compiling module LPM_HINT_EVALUATION
-- Compiling module LPM_DEVICE_FAMILIES
-- Compiling module lpm_constant
-- Compiling module lpm_inv
-- Compiling module lpm_and
-- Compiling module lpm_or
-- Compiling module lpm_xor
-- Compiling module lpm_bustri
-- Compiling module lpm_mux
-- Compiling module lpm_decode
-- Compiling module lpm_clshift
-- Compiling module lpm_add_sub
-- Compiling module lpm_compare
-- Compiling module lpm_mult
-- Compiling module lpm_divide
-- Compiling module lpm_abs
-- Compiling module lpm_counter
-- Compiling module lpm_latch
-- Compiling module lpm_ff
-- Compiling module lpm_shiftreg
-- Compiling module lpm_ram_dq
-- Compiling module lpm_ram_dp
-- Compiling module lpm_ram_io
-- Compiling module lpm_rom
-- Compiling module lpm_fifo
-- Compiling module lpm_fifo_dc_dffpipe
-- Compiling module lpm_fifo_dc_fefifo
-- Compiling module lpm_fifo_dc_async
-- Compiling module lpm_fifo_dc
-- Compiling module lpm_inpad
-- Compiling module lpm_outpad
-- Compiling module lpm_bipad
-- Compiling module altfp_adder_altbarrel_shift_h0e
-- Compiling module altfp_adder_altbarrel_shift_n3g
-- Compiling module altfp_adder_altpriority_encoder_3e8
-- Compiling module altfp_adder_altpriority_encoder_6e8
-- Compiling module altfp_adder_altpriority_encoder_be8
-- Compiling module altfp_adder_altpriority_encoder_3v7
-- Compiling module altfp_adder_altpriority_encoder_6v7
-- Compiling module altfp_adder_altpriority_encoder_bv7
-- Compiling module altfp_adder_altpriority_encoder_uv8
-- Compiling module altfp_adder_altpriority_encoder_ue9
-- Compiling module altfp_adder_altpriority_encoder_ou8
-- Compiling module altfp_adder_altpriority_encoder_nh8
-- Compiling module altfp_adder_altpriority_encoder_qh8
-- Compiling module altfp_adder_altpriority_encoder_vh8
-- Compiling module altfp_adder_altpriority_encoder_ii9
-- Compiling module altfp_adder_altpriority_encoder_n28
-- Compiling module altfp_adder_altpriority_encoder_q28
-- Compiling module altfp_adder_altpriority_encoder_v28
-- Compiling module altfp_adder_altpriority_encoder_i39
-- Compiling module altfp_adder_altpriority_encoder_cna
-- Compiling module altfp_adder_altfp_add_sub_dmj
-- Compiling module altfp_adder
-- Compiling module altfp_subtractor_altbarrel_shift_h0e
-- Compiling module altfp_subtractor_altbarrel_shift_n3g
-- Compiling module altfp_subtractor_altpriority_encoder_3e8
-- Compiling module altfp_subtractor_altpriority_encoder_6e8
-- Compiling module altfp_subtractor_altpriority_encoder_be8
-- Compiling module altfp_subtractor_altpriority_encoder_3v7
-- Compiling module altfp_subtractor_altpriority_encoder_6v7
-- Compiling module altfp_subtractor_altpriority_encoder_bv7
-- Compiling module altfp_subtractor_altpriority_encoder_uv8
-- Compiling module altfp_subtractor_altpriority_encoder_ue9
-- Compiling module altfp_subtractor_altpriority_encoder_ou8
-- Compiling module altfp_subtractor_altpriority_encoder_nh8
-- Compiling module altfp_subtractor_altpriority_encoder_qh8
-- Compiling module altfp_subtractor_altpriority_encoder_vh8
-- Compiling module altfp_subtractor_altpriority_encoder_ii9
-- Compiling module altfp_subtractor_altpriority_encoder_n28
-- Compiling module altfp_subtractor_altpriority_encoder_q28
-- Compiling module altfp_subtractor_altpriority_encoder_v28
-- Compiling module altfp_subtractor_altpriority_encoder_i39
-- Compiling module altfp_subtractor_altpriority_encoder_cna
-- Compiling module altfp_subtractor_altfp_add_sub_enj
-- Compiling module altfp_subtractor
-- Compiling module altfp_multiplier_altfp_mult_4do
-- Compiling module altfp_multiplier
-- Compiling module altfp_divider_altfp_div_csa_gvc
-- Compiling module altfp_divider_altfp_div_csa_72c
-- Compiling module altfp_divider_altfp_div_csa_j0f
-- Compiling module altfp_divider_altfp_div_csa_c3c
-- Compiling module altfp_divider_altfp_div_csa_a2c
-- Compiling module altfp_divider_altfp_div_csa_b3c
-- Compiling module altfp_divider_qds_block_7o8
-- Compiling module altfp_divider_srt_block_int_2fk
-- Compiling module altfp_divider_qds_block_6a7
-- Compiling module altfp_divider_srt_block_int_ahk
-- Compiling module altfp_divider_srt_block_int_hbk
-- Compiling module altfp_divider_altfp_div_srt_ext_73f
-- Compiling module altfp_divider_altfp_div_kth
-- Compiling module altfp_divider
-- Compiling module altfp_adder64_altbarrel_shift_k0e
-- Compiling module altfp_adder64_altbarrel_shift_q3g
-- Compiling module altfp_adder64_altpriority_encoder_3e8
-- Compiling module altfp_adder64_altpriority_encoder_6e8
-- Compiling module altfp_adder64_altpriority_encoder_be8
-- Compiling module altfp_adder64_altpriority_encoder_rf8
-- Compiling module altfp_adder64_altpriority_encoder_3v7
-- Compiling module altfp_adder64_altpriority_encoder_6v7
-- Compiling module altfp_adder64_altpriority_encoder_bv7
-- Compiling module altfp_adder64_altpriority_encoder_r08
-- Compiling module altfp_adder64_altpriority_encoder_tv8
-- Compiling module altfp_adder64_altpriority_encoder_te9
-- Compiling module altfp_adder64_altpriority_encoder_uu8
-- Compiling module altfp_adder64_altpriority_encoder_nh8
-- Compiling module altfp_adder64_altpriority_encoder_qh8
-- Compiling module altfp_adder64_altpriority_encoder_vh8
-- Compiling module altfp_adder64_altpriority_encoder_fj8
-- Compiling module altfp_adder64_altpriority_encoder_hi9
-- Compiling module altfp_adder64_altpriority_encoder_n28
-- Compiling module altfp_adder64_altpriority_encoder_q28
-- Compiling module altfp_adder64_altpriority_encoder_v28
-- Compiling module altfp_adder64_altpriority_encoder_f48
-- Compiling module altfp_adder64_altpriority_encoder_h39
-- Compiling module altfp_adder64_altpriority_encoder_ina
-- Compiling module altfp_adder64_altfp_add_sub_pnj
-- Compiling module altfp_adder64
-- Compiling module altfp_subtractor64_altbarrel_shift_k0e
-- Compiling module altfp_subtractor64_altbarrel_shift_q3g
-- Compiling module altfp_subtractor64_altpriority_encoder_3e8
-- Compiling module altfp_subtractor64_altpriority_encoder_6e8
-- Compiling module altfp_subtractor64_altpriority_encoder_be8
-- Compiling module altfp_subtractor64_altpriority_encoder_rf8
-- Compiling module altfp_subtractor64_altpriority_encoder_3v7
-- Compiling module altfp_subtractor64_altpriority_encoder_6v7
-- Compiling module altfp_subtractor64_altpriority_encoder_bv7
-- Compiling module altfp_subtractor64_altpriority_encoder_r08
-- Compiling module altfp_subtractor64_altpriority_encoder_tv8
-- Compiling module altfp_subtractor64_altpriority_encoder_te9
-- Compiling module altfp_subtractor64_altpriority_encoder_uu8
-- Compiling module altfp_subtractor64_altpriority_encoder_nh8
-- Compiling module altfp_subtractor64_altpriority_encoder_qh8
-- Compiling module altfp_subtractor64_altpriority_encoder_vh8
-- Compiling module altfp_subtractor64_altpriority_encoder_fj8
-- Compiling module altfp_subtractor64_altpriority_encoder_hi9
-- Compiling module altfp_subtractor64_altpriority_encoder_n28
-- Compiling module altfp_subtractor64_altpriority_encoder_q28
-- Compiling module altfp_subtractor64_altpriority_encoder_v28
-- Compiling module altfp_subtractor64_altpriority_encoder_f48
-- Compiling module altfp_subtractor64_altpriority_encoder_h39
-- Compiling module altfp_subtractor64_altpriority_encoder_ina
-- Compiling module altfp_subtractor64_altfp_add_sub_qoj
-- Compiling module altfp_subtractor64
-- Compiling module altfp_multiplier64_altfp_mult_geo
-- Compiling module altfp_multiplier64
-- Compiling module altfp_divider64_altfp_div_csa_ivc
-- Compiling module altfp_divider64_altfp_div_csa_92c
-- Compiling module altfp_divider64_altfp_div_csa_k0f
-- Compiling module altfp_divider64_altfp_div_csa_d3c
-- Compiling module altfp_divider64_altfp_div_csa_c2c
-- Compiling module altfp_divider64_qds_block_7o8
-- Compiling module altfp_divider64_srt_block_int_8fk
-- Compiling module altfp_divider64_qds_block_6a7
-- Compiling module altfp_divider64_srt_block_int_ghk
-- Compiling module altfp_divider64_srt_block_int_nbk
-- Compiling module altfp_divider64_altfp_div_srt_ext_e3f
-- Compiling module altfp_divider64_altfp_div_1vh
-- Compiling module altfp_divider64
-- Compiling module altfp_compare32_altfp_compare_lke
-- Compiling module altfp_compare32
-- Compiling module altfp_compare64_altfp_compare_1me
-- Compiling module altfp_compare64
-- Compiling module altfp_truncate_altfp_convert_bpn
-- Compiling module altfp_truncate
-- Compiling module altfp_extend_altfp_convert_bpn
-- Compiling module altfp_extend
-- Compiling module altfp_sitofp32_altbarrel_shift_brf
-- Compiling module altfp_sitofp32_altpriority_encoder_3e8
-- Compiling module altfp_sitofp32_altpriority_encoder_6e8
-- Compiling module altfp_sitofp32_altpriority_encoder_be8
-- Compiling module altfp_sitofp32_altpriority_encoder_rf8
-- Compiling module altfp_sitofp32_altpriority_encoder_3v7
-- Compiling module altfp_sitofp32_altpriority_encoder_6v7
-- Compiling module altfp_sitofp32_altpriority_encoder_bv7
-- Compiling module altfp_sitofp32_altpriority_encoder_r08
-- Compiling module altfp_sitofp32_altpriority_encoder_qb6
-- Compiling module altfp_sitofp32_altfp_convert_fhn
-- Compiling module altfp_sitofp32
-- Compiling module altfp_sitofp64_altbarrel_shift_brf
-- Compiling module altfp_sitofp64_altpriority_encoder_3v7
-- Compiling module altfp_sitofp64_altpriority_encoder_3e8
-- Compiling module altfp_sitofp64_altpriority_encoder_6v7
-- Compiling module altfp_sitofp64_altpriority_encoder_6e8
-- Compiling module altfp_sitofp64_altpriority_encoder_bv7
-- Compiling module altfp_sitofp64_altpriority_encoder_be8
-- Compiling module altfp_sitofp64_altpriority_encoder_r08
-- Compiling module altfp_sitofp64_altpriority_encoder_rf8
-- Compiling module altfp_sitofp64_altpriority_encoder_qb6
-- Compiling module altfp_sitofp64_altfp_convert_0jn
-- Compiling module altfp_sitofp64
-- Compiling module altfp_fptosi32_altbarrel_shift_grf
-- Compiling module altfp_fptosi32_altfp_convert_fhn
-- Compiling module altfp_fptosi32
-- Compiling module altfp_fptosi64_altbarrel_shift_jrf
-- Compiling module altfp_fptosi64_altfp_convert_0jn
-- Compiling module altfp_fptosi64
-- Compiling module top
-- Compiling module memory_controller
-- Compiling module main
-- Compiling module ram_dual_port
-- Compiling module de2
-- Compiling module de4
-- Compiling module hex_digits
-- Compiling module main_tb
-- Scanning library file '../../../tiger/processor/tiger_DE2/../altera_libs//altera_mf.v'
-- Compiling module altsyncram
-- Scanning library file '../../../tiger/processor/tiger_DE2/../altera_libs//altera_mf.v'
-- Compiling module ALTERA_MF_MEMORY_INITIALIZATION
-- Compiling module ALTERA_DEVICE_FAMILIES

Top level modules:
	lpm_constant
	lpm_inv
	lpm_and
	lpm_or
	lpm_xor
	lpm_bustri
	lpm_decode
	lpm_clshift
	lpm_abs
	lpm_counter
	lpm_latch
	lpm_ff
	lpm_shiftreg
	lpm_ram_dq
	lpm_ram_dp
	lpm_ram_io
	lpm_rom
	lpm_fifo
	lpm_fifo_dc
	lpm_inpad
	lpm_outpad
	lpm_bipad
	altfp_adder
	altfp_subtractor
	altfp_multiplier
	altfp_divider
	altfp_adder64
	altfp_subtractor64
	altfp_multiplier64
	altfp_divider64
	altfp_compare32
	altfp_compare64
	altfp_truncate
	altfp_extend
	altfp_sitofp32
	altfp_sitofp64
	altfp_fptosi32
	altfp_fptosi64
	de4
	main_tb
vsim  -c -do "run 7000000000000000ns; exit;" work.main_tb
Reading /home/oscarhou/altera/11.1/modelsim_ase/tcl/vsim/pref.tcl 

# 10.0c

# vsim -do {run 7000000000000000ns; exit;} -c work.main_tb 
# Loading work.main_tb
# Loading work.top
# Loading work.memory_controller
# Loading work.ram_dual_port
# Loading work.altsyncram
# Loading work.ALTERA_DEVICE_FAMILIES
# Loading work.ALTERA_MF_MEMORY_INITIALIZATION
# Loading work.main
# Loading work.lpm_divide
# Loading work.LPM_HINT_EVALUATION
# run 7000000000000000ns 
# Cycle:                   68 Time:                 1410    ---------------Round          0--------------
# Cycle:                  103 Time:                 2110    C Value  After theta :         1,          1,          1,          1,          1
# Cycle:                  298 Time:                 6010    D Value:          3,          3,          3,          3,          3
# Cycle:                  421 Time:                 8470    State After Theta Step: 
# Cycle:                  426 Time:                 8570    1st Row:          2,          2,          2,          2,          2
# Cycle:                  431 Time:                 8670    2st Row:          3,          3,          3,          3,          3
# Cycle:                  436 Time:                 8770    3st Row:          3,          3,          3,          3,          3
# Cycle:                  441 Time:                 8870    4st Row:          3,          3,          3,          3,          3
# Cycle:                  446 Time:                 8970    5st Row:          3,          3,          3,          3,          3
# Cycle:                 1382 Time:                27690    Temporary State (B) after Rho and Pi:
# Cycle:                 1387 Time:                27790    1st Row:          2,      12288,       6144,         96,      49152
# Cycle:                 1392 Time:                27890    2st Row:       8192,         48,         24,      24576,      24576
# Cycle:                 1397 Time:                27990    3st Row:          4,        192,       1536,        768,         12
# Cycle:                 1402 Time:                28090    4st Row:       4096,         48,       3072,      32769,        768
# Cycle:                 1407 Time:                28190    5st Row:      32768,        384,        384,       1536,         12
# Cycle:                 1708 Time:                34210    State after Chi step:
# Cycle:                 1713 Time:                34310    1st Row:       2050,      12384,      55296,         98,      61440
# Cycle:                 1718 Time:                34410    2st Row:       8200,      24624,         24,      24576,      24624
# Cycle:                 1723 Time:                34510    3st Row:       1540,        448,       1548,        768,        204
# Cycle:                 1728 Time:                34610    4st Row:       7168,      32817,       3840,      36865,        816
# Cycle:                 1733 Time:                34710    5st Row:      32768,       1920,        396,      34304,        396
# Cycle:                 1737 Time:                34790    Final state of round : 
# Cycle:                 1742 Time:                34890    1st Row:       2051,      12384,      55296,         98,      61440
# Cycle:                 1747 Time:                34990    2st Row:       8200,      24624,         24,      24576,      24624
# Cycle:                 1752 Time:                35090    3st Row:       1540,        448,       1548,        768,        204
# Cycle:                 1757 Time:                35190    4st Row:       7168,      32817,       3840,      36865,        816
# Cycle:                 1762 Time:                35290    5st Row:      32768,       1920,        396,      34304,        396
# Cycle:                 1763 Time:                35310    ---------------Round          1--------------
# Cycle:                 1798 Time:                36010    C Value  After theta :     45583,      54817,      53400,      30051,      37440
# Cycle:                 1993 Time:                39910    D Value:      15875,       4926,      15591,      62489,       4476
# Cycle:                 2116 Time:                42370    State After Theta Step: 
# Cycle:                 2121 Time:                42470    1st Row:      13824,       9054,      58599,      62587,      57724
# Cycle:                 2126 Time:                42570    2st Row:       7691,      29454,      15615,      37913,      29004
# Cycle:                 2131 Time:                42670    3st Row:      14343,       4862,      15083,      63257,       4528
# Cycle:                 2136 Time:                42770    4st Row:       8707,      37647,      13287,      25624,       4684
# Cycle:                 2141 Time:                42870    5st Row:      48643,       5310,      15723,      29209,       4336
# Cycle:                 3077 Time:                61590    Temporary State (B) after Rho and Pi:
# Cycle:                 3082 Time:                61690    1st Row:      13824,      59184,      22999,      33548,       1084
# Cycle:                 3087 Time:                61790    2st Row:      48967,       5319,      49209,      62049,      26541
# Cycle:                 3092 Time:                61890    3st Row:      18108,      16335,      13294,      19474,      63502
# Cycle:                 3097 Time:                61990    4st Row:      59147,      57521,      63563,      39411,       6514
# Cycle:                 3102 Time:                62090    5st Row:      63801,       3274,      55304,       1604,      21240
# Cycle:                 3403 Time:                68110    State after Chi step:
# Cycle:                 3408 Time:                68210    1st Row:      11975,      25912,      24039,      45324,      50444
# Cycle:                 3413 Time:                68310    2st Row:      32639,       9863,      50613,      27171,      26413
# Cycle:                 3418 Time:                68410    3st Row:      18076,      29663,      33762,      19106,      49485
# Cycle:                 3423 Time:                68510    4st Row:      65345,      57601,      63563,      32762,       6594
# Cycle:                 3428 Time:                68610    5st Row:      10553,       2702,      34992,      44869,      22074
# Cycle:                 3432 Time:                68690    Final state of round : 
# Cycle:                 3437 Time:                68790    1st Row:      44613,      25912,      24039,      45324,      50444
# Cycle:                 3442 Time:                68890    2st Row:      32639,       9863,      50613,      27171,      26413
# Cycle:                 3447 Time:                68990    3st Row:      18076,      29663,      33762,      19106,      49485
# Cycle:                 3452 Time:                69090    4st Row:      65345,      57601,      63563,      32762,       6594
# Cycle:                 3457 Time:                69190    5st Row:      10553,       2702,      34992,      44869,      22074
# Cycle:                 3458 Time:                69210    ---------------Round          2--------------
# Cycle:                 3493 Time:                69910    C Value  After theta :     16862,      56303,      27467,      16690,      11412
# Cycle:                 3688 Time:                73810    D Value:      39755,      38728,      22923,      12899,      49806
# Cycle:                 3811 Time:                76270    State After Theta Step: 
# Cycle:                 3816 Time:                76370    1st Row:      13582,      62064,       1132,      33647,       1922
# Cycle:                 3821 Time:                76470    2st Row:      58420,      45519,      39998,      22592,      42403
# Cycle:                 3826 Time:                76570    3st Row:      56791,      58519,      55913,      30913,        963
# Cycle:                 3831 Time:                76670    4st Row:      25610,      30281,      41408,      19865,      56140
# Cycle:                 3836 Time:                76770    5st Row:      45682,      40390,      53563,      40230,      38068
# Cycle:                 4772 Time:                95490    Temporary State (B) after Rho and Pi:
# Cycle:                 4777 Time:                95590    1st Row:      13582,      64284,      20179,      45865,       9517
# Cycle:                 4782 Time:                95690    2st Row:      63542,      23098,      61118,      11977,      31271
# Cycle:                 4787 Time:                95790    3st Row:      58593,       4007,      33521,      19675,      51658
# Cycle:                 4792 Time:                95890    4st Row:       4156,      17230,      24466,      20704,       9885
# Cycle:                 4797 Time:                95990    5st Row:        283,       8236,      57729,       5320,      30490
# Cycle:                 5098 Time:               102010    State after Chi step:
# Cycle:                 5103 Time:               102110    1st Row:      12749,      18996,      19159,      41771,      61245
# Cycle:                 5108 Time:               102210    2st Row:      23730,      23163,      48792,      44761,      30767
# Cycle:                 5113 Time:               102310    3st Row:      25777,      17325,       1009,      26874,      49868
# Cycle:                 5118 Time:               102410    4st Row:       3244,      17198,      31119,      16576,      26079
# Cycle:                 5123 Time:               102510    5st Row:      49306,      13412,      33427,       5321,      22334
# Cycle:                 5127 Time:               102590    Final state of round : 
# Cycle:                 5132 Time:               102690    1st Row:      45383,      18996,      19159,      41771,      61245
# Cycle:                 5137 Time:               102790    2st Row:      23730,      23163,      48792,      44761,      30767
# Cycle:                 5142 Time:               102890    3st Row:      25777,      17325,       1009,      26874,      49868
# Cycle:                 5147 Time:               102990    4st Row:       3244,      17198,      31119,      16576,      26079
# Cycle:                 5152 Time:               103090    5st Row:      49306,      13412,      33427,       5321,      22334
# Cycle:                 5153 Time:               103110    ---------------Round          3--------------
# Cycle:                 5188 Time:               103810    C Value  After theta :     17778,       9384,       3234,      12545,      26431
# Cycle:                 5383 Time:               107710    D Value:      11887,      23606,      18090,      49884,      48101
# Cycle:                 5506 Time:               110170    State After Theta Step: 
# Cycle:                 5511 Time:               110270    1st Row:      40744,       5634,       3197,      25079,      21720
# Cycle:                 5516 Time:               110370    2st Row:      29405,       1613,      63538,      27653,      50122
# Cycle:                 5521 Time:               110470    3st Row:      19166,       8091,      17755,      43558,      31017
# Cycle:                 5526 Time:               110570    4st Row:       8899,       7960,      16165,      33308,      56890
# Cycle:                 5531 Time:               110670    5st Row:      61173,      26706,      50233,      54805,      60635
# Cycle:                 6467 Time:               129390    Temporary State (B) after Rho and Pi:
# Cycle:                 6472 Time:               129490    1st Row:      40744,      53348,      55850,      17296,      64310
# Cycle:                 6477 Time:               129590    2st Row:      30239,      15532,      22258,        995,      14471
# Cycle:                 6482 Time:               129690    3st Row:      11268,       3262,      19796,      15070,      48087
# Cycle:                 6487 Time:               129790    4st Row:      49830,      11735,      27774,      40850,       5590
# Cycle:                 6492 Time:               129890    5st Row:      17183,        694,      38076,      34373,      41289
# Cycle:                 6793 Time:               135910    State after Chi step:
# Cycle:                 6798 Time:               136010    1st Row:      38178,      53748,      25100,      18328,      47986
# Cycle:                 6803 Time:               136110    2st Row:      13389,      15789,      28406,      17915,      12327
# Cycle:                 6808 Time:               136210    3st Row:      27972,      15924,      52309,      16094,      47981
# Cycle:                 6813 Time:               136310    4st Row:      33422,      48727,      27706,      23986,      14471
# Cycle:                 6818 Time:               136410    5st Row:      55063,        247,      46516,      50259,      41449
# Cycle:                 6822 Time:               136490    Final state of round : 
# Cycle:                 6827 Time:               136590    1st Row:       5410,      53748,      25100,      18328,      47986
# Cycle:                 6832 Time:               136690    2st Row:      13389,      15789,      28406,      17915,      12327
# Cycle:                 6837 Time:               136790    3st Row:      27972,      15924,      52309,      16094,      47981
# Cycle:                 6842 Time:               136890    4st Row:      33422,      48727,      27706,      23986,      14471
# Cycle:                 6847 Time:               136990    5st Row:      55063,        247,      46516,      50259,      41449
# Cycle:                 6848 Time:               137010    ---------------Round          4--------------
# Cycle:                 6883 Time:               137710    C Value  After theta :      6578,      27853,       6433,      42332,      43350
# Cycle:                 7078 Time:               141610    D Value:      28876,      11248,       9844,      19340,      38456
# Cycle:                 7201 Time:               144070    State After Theta Step: 
# Cycle:                 7206 Time:               144170    1st Row:      26094,      64004,      17528,       3092,      11594
# Cycle:                 7211 Time:               144270    2st Row:      17537,       5725,      18562,       3703,      42527
# Cycle:                 7216 Time:               144370    3st Row:       7560,       5572,      59937,      30034,      11605
# Cycle:                 7221 Time:               144470    4st Row:      62018,      38311,      19022,       5694,      44735
# Cycle:                 7226 Time:               144570    5st Row:      42971,      11015,      37824,      36831,      14289
# Cycle:                 8162 Time:               163290    Temporary State (B) after Rho and Pi:
# Cycle:                 8167 Time:               163390    1st Row:      26094,      53605,       3921,      51138,      19956
# Cycle:                 8172 Time:               163490    2st Row:      16577,      25082,      60480,      62132,       4728
# Cycle:                 8177 Time:               163590    3st Row:      62473,       8338,      42218,      49070,      40814
# Cycle:                 8182 Time:               163690    4st Row:      20842,      18452,       4183,       9511,      57231
# Cycle:                 8187 Time:               163790    5st Row:       4382,      15239,      43670,      34276,      44060
# Cycle:                 8488 Time:               169810    State after Chi step:
# Cycle:                 8493 Time:               169910    1st Row:      27646,       4583,       1893,      59336,      56821
# Cycle:                 8498 Time:               170010    2st Row:      52417,      29518,      60424,      45621,      13122
# Cycle:                 8503 Time:               170110    3st Row:      28769,      15254,      42154,      57263,      40956
# Cycle:                 8508 Time:               170210    4st Row:      16681,      27956,      51935,       9543,      55195
# Cycle:                 8513 Time:               170310    5st Row:      37134,      16103,      33422,      38118,      34461
# Cycle:                 8517 Time:               170390    Final state of round : 
# Cycle:                 8522 Time:               170490    1st Row:      60277,       4583,       1893,      59336,      56821
# Cycle:                 8527 Time:               170590    2st Row:      52417,      29518,      60424,      45621,      13122
# Cycle:                 8532 Time:               170690    3st Row:      28769,      15254,      42154,      57263,      40956
# Cycle:                 8537 Time:               170790    4st Row:      16681,      27956,      51935,       9543,      55195
# Cycle:                 8542 Time:               170890    5st Row:      37134,      16103,      33422,      38118,      34461
# Cycle:                 8543 Time:               170910    ---------------Round          5--------------
# Cycle:                 8578 Time:               171610    C Value  After theta :     34802,       2796,       1942,      15347,       8269
# Cycle:                 8773 Time:               175510    D Value:      13717,      35038,      32010,      18188,      13334
# Cycle:                 8896 Time:               177970    State After Theta Step: 
# Cycle:                 8901 Time:               178070    1st Row:      57056,      39225,      31343,      41156,      59875
# Cycle:                 8906 Time:               178170    2st Row:      63828,      64400,      37122,      62777,       1876
# Cycle:                 8911 Time:               178270    3st Row:      17908,      45896,      55712,      39075,      44010
# Cycle:                 8916 Time:               178370    4st Row:      29884,      58858,      47061,      25163,      58253
# Cycle:                 8921 Time:               178470    5st Row:      42139,      46649,      65412,      54250,      45707
# Cycle:                 9857 Time:               197190    Temporary State (B) after Rho and Pi:
# Cycle:                 9862 Time:               197290    1st Row:      57056,       4025,       1741,      18796,      60578
# Cycle:                 9867 Time:               197390    2st Row:      18956,      30016,      12194,      23741,      40944
# Cycle:                 9872 Time:               197490    3st Row:      12915,      16548,      18225,      36323,      37486
# Cycle:                 9877 Time:               197590    4st Row:       8015,      38223,       8909,      56298,      60115
# Cycle:                 9882 Time:               197690    5st Row:      56987,      40186,      62805,      30953,      55526
# Cycle:                10183 Time:               203710    State after Chi step:
# Cycle:                10188 Time:               203810    1st Row:      56996,      18073,      41551,      23340,      60859
# Cycle:                10193 Time:               203910    2st Row:      16558,       9565,      44258,       7345,      43696
# Cycle:                10198 Time:               204010    3st Row:      13666,      51302,      21821,      44530,      53994
# Cycle:                10203 Time:               204110    4st Row:      15823,      19565,        732,      52966,      27347
# Cycle:                10208 Time:               204210    5st Row:      49054,      37970,      30035,      32496,      55430
# Cycle:                10212 Time:               204290    Final state of round : 
# Cycle:                10217 Time:               204390    1st Row:      56997,      18073,      41551,      23340,      60859
# Cycle:                10222 Time:               204490    2st Row:      16558,       9565,      44258,       7345,      43696
# Cycle:                10227 Time:               204590    3st Row:      13666,      51302,      21821,      44530,      53994
# Cycle:                10232 Time:               204690    4st Row:      15823,      19565,        732,      52966,      27347
# Cycle:                10237 Time:               204790    5st Row:      49054,      37970,      30035,      32496,      55430
# Cycle:                10238 Time:               204810    ---------------Round          6--------------
# Cycle:                10273 Time:               205510    C Value  After theta :     10552,      29597,      11295,      23161,      10164
# Cycle:                10468 Time:               209410    D Value:      49294,      28934,      51055,      25463,       2057
# Cycle:                10591 Time:               211870    State After Theta Step: 
# Cycle:                10596 Time:               211970    1st Row:       7723,      14239,      25888,      14427,      58802
# Cycle:                10601 Time:               212070    2st Row:      32800,      21595,      27533,      32710,      41657
# Cycle:                10606 Time:               212170    3st Row:      62956,      47456,      37458,      52869,      56035
# Cycle:                10611 Time:               212270    4st Row:      64833,      15723,      50611,      44433,      25306
# Cycle:                10616 Time:               212370    5st Row:      32528,      58708,      45628,       7559,      53391
# Cycle:                11552 Time:               231090    Temporary State (B) after Rho and Pi:
# Cycle:                11557 Time:               231190    1st Row:       7723,      46405,      38034,      45621,      62499
# Cycle:                11562 Time:               231290    2st Row:      45957,      11162,      44903,      26541,      38471
# Cycle:                11567 Time:               231390    3st Row:      28478,      58202,       2973,      55906,      64577
# Cycle:                11572 Time:               231490    4st Row:      38701,        520,      33509,      58073,      34589
# Cycle:                11577 Time:               231590    5st Row:       6472,      58175,      29165,      33786,      38227
# Cycle:                11878 Time:               237610    State after Chi step:
# Cycle:                11883 Time:               237710    1st Row:       7865,      38752,      53392,      47165,      21863
# Cycle:                11888 Time:               237810    2st Row:      14304,      27410,      16165,      17965,      40541
# Cycle:                11893 Time:               237910    3st Row:      26555,      13112,      12188,      55644,      31745
# Cycle:                11898 Time:               238010    4st Row:       6088,      25104,      34785,      62201,      34589
# Cycle:                11903 Time:               238110    5st Row:       2440,      24877,      26092,      35826,      30564
# Cycle:                11907 Time:               238190    Final state of round : 
# Cycle:                11912 Time:               238290    1st Row:      40504,      38752,      53392,      47165,      21863
# Cycle:                11917 Time:               238390    2st Row:      14304,      27410,      16165,      17965,      40541
# Cycle:                11922 Time:               238490    3st Row:      26555,      13112,      12188,      55644,      31745
# Cycle:                11927 Time:               238590    4st Row:       6088,      25104,      34785,      62201,      34589
# Cycle:                11932 Time:               238690    5st Row:       2440,      24877,      26092,      35826,      30564
# Cycle:                11933 Time:               238710    ---------------Round          7--------------
# Cycle:                11968 Time:               239410    C Value  After theta :     53283,      52343,       8740,      24135,      18242
# Cycle:                12163 Time:               243310    D Value:      57261,      37995,      28921,      44192,      65024
# Cycle:                12286 Time:               245770    State After Theta Step: 
# Cycle:                12291 Time:               245870    1st Row:      16789,        779,      41065,       5277,      43879
# Cycle:                12296 Time:               245970    2st Row:      59469,      65401,      20444,      60045,      24669
# Cycle:                12301 Time:               246070    3st Row:      47126,      42835,      24421,      30204,      33281
# Cycle:                12306 Time:               246170    4st Row:      51301,      63099,      63256,      24153,      31005
# Cycle:                12311 Time:               246270    5st Row:      54821,      62790,       5397,      10066,      35172
# Cycle:                13247 Time:               264990    Temporary State (B) after Rho and Pi:
# Cycle:                13252 Time:               265090    1st Row:      16789,      40951,      11003,      52011,       8793
# Cycle:                13257 Time:               265190    2st Row:      53577,       1494,      49333,      32463,      41634
# Cycle:                13262 Time:               265290    3st Row:       1558,      63251,      63723,       7545,      22679
# Cycle:                13267 Time:               265390    4st Row:      15707,      34014,      20125,      31628,      21031
# Cycle:                13272 Time:               265490    5st Row:      26650,      18165,        193,      52112,      54555
# Cycle:                13573 Time:               271510    State after Chi step:
# Cycle:                13578 Time:               271610    1st Row:      24989,      24311,       2731,      35503,      48187
# Cycle:                13583 Time:               271710    2st Row:       4456,      15260,      16533,      12166,      42548
# Cycle:                13588 Time:               271810    3st Row:       3838,      61955,      47213,       7033,      43414
# Cycle:                13593 Time:               271910    4st Row:      30554,      46558,      20158,      22228,      53923
